Quantitative Analysis 1 - An Introduction to Simple Regression
…
You have been asked to understand if an employee’s general attitude toward AI is related to how frequently they are using the new AI tool using two survey questions:

Much of society will benefit from a future full of Artificial Intelligence.

In the past two months, how frequently have you used the organization’s new AI powered chat bot?

View our Dataset

data_ai |>
  dplyr::select(
    pos_attitude_ai:freq_use_ai_label
  )

# A tibble: 5,000 × 4
   pos_attitude_ai freq_use_ai pos_attitude_ai_label freq_use_ai_label
             <int>       <dbl> <chr>                 <chr>            
 1               4           4 Neutral               Fairly Often     
 2               6           6 Strongly Agree        All the time     
 3               7           3 Completely Agree      Occasionally     
 4               7           6 Completely Agree      All the time     
 5               4           3 Neutral               Occasionally     
 6               5           4 Agree                 Fairly Often     
 7               5           6 Agree                 All the time     
 8               3           4 Disagree              Fairly Often     
 9               3           5 Disagree              Very Often       
10               4           4 Neutral               Fairly Often     
# ℹ 4,990 more rows
…
