Quantitative Analysis 1 - An Introduction to Base R & the Tidyverse
…
The tidyverse is a collection of R packages that “share a common philosophy of data and R programming and are designed to work together.”

Installing Packages from the Tidyverse

install.packages("tidyverse")

tibble: Data frame of Tidyverse

Tibbles are the tidyverse’s version of a data.frame. They can be loaded from the tidyverse package: tibble.

data_employees_tbl <- tibble::as_tibble(data_employees)
data_employees_tbl

# A tibble: 1,470 × 36
   employee_id active stock_opt_lvl trainings   age commute_dist ed_lvl ed_field
         <int> <chr>          <int>     <int> <int>        <int>  <int> <chr>   
 1        1001 No                 0         0    41            1      2 Life Sc…
 2        1002 Yes                1         3    49            8      1 Life Sc…
 3        1003 No                 0         3    37            2      2 Other   
 4        1004 Yes                0         3    33            3      4 Life Sc…
 5        1005 Yes                1         3    27            2      1 Medical 
 6        1006 Yes                0         2    32            2      2 Life Sc…
 7        1007 Yes                3         3    59            3      3 Medical 
 8        1008 Yes                1         2    30           24      1 Life Sc…
 9        1009 Yes                0         2    38           23      3 Life Sc…
10        1010 Yes                2         3    36           27      3 Medical 
# ℹ 1,460 more rows
# ℹ 28 more variables: gender <chr>, marital_sts <chr>, dept <chr>,
#   engagement <int>, job_lvl <int>, job_title <chr>, overtime <chr>,
#   business_travel <chr>, hourly_rate <int>, daily_comp <int>,
#   monthly_comp <int>, annual_comp <int>, ytd_leads <int>, ytd_sales <int>,
#   standard_hrs <int>, salary_hike_pct <int>, perf_rating <int>,
#   prior_emplr_cnt <int>, env_sat <int>, job_sat <int>, rel_sat <int>, …
…
